{
    "app_categories": {
        "Connectivity": "Cysylltedd",
        "Development": "Datblygiad",
        "Games": "Gemau",
        "Graphics": "Graffigau",
        "Internet": "Rhyngrwyd",
        "Money": "Arian",
        "Multimedia": "Aml-gyfrwng",
        "Navigation": "Llywio",
        "Phone & SMS": "Ffôn ac SMS",
        "Reading": "Darllen",
        "Science & Education": "Gwyddoniaeth ac Addysg",
        "Security": "Diogelwch",
        "Sports & Health": "Chwaraeon a Iechyd",
        "System": "System",
        "Theming": "Themáu",
        "Time": "Amser",
        "Writing": "Ysgrifennu",
        "show_all_packages": "Gweld y %d"
    }
}
