{
    "app_categories": {
        "Connectivity": "Ühenduvus",
        "Development": "Arendus",
        "Games": "Mängud",
        "Graphics": "Graafika",
        "Internet": "Internet",
        "Money": "Raha",
        "Multimedia": "Multimeedia",
        "Navigation": "Navigeerimine",
        "Phone & SMS": "Telefon & SMS",
        "Reading": "Lugemine",
        "Science & Education": "Teadus & haridus",
        "Security": "Turvalisus",
        "Sports & Health": "Sport & tervis",
        "System": "Süsteem",
        "Theming": "Teemad",
        "Time": "Aeg",
        "Writing": "Kirjutamine",
        "show_all_packages": "Kuva kõik %d"
    }
}
